Exposure-Response Tools for Logistic Regression Models • erlr
…
library(erlr)
library(dplyr)
#> 
#> Attaching package: 'dplyr'
#> The following objects are masked from 'package:stats':
#> 
#>     filter, lag
#> The following objects are masked from 'package:base':
#> 
#>     intersect, setdiff, setequal, union
library(tibble)

lr_data
#> # A tibble: 300 × 7
#>       id  dose exposure_1 quartile_1 response_1 response_2 sex   
#>    <int> <dbl>      <dbl> <fct>           <dbl>      <dbl> <fct> 
#>  1     1   100      148.  Q3                  1          1 Male  
#>  2     2   100       79.7 Q1                  1          0 Male  
#>  3     3   200      212.  Q3                  1          0 Male  
#>  4     4   200      236.  Q3                  0          0 Female
#>  5     5     0        0   Placebo             1          0 Male  
#>  6     6   200       71.0 Q1                  1          0 Female
#>  7     7   100      173.  Q3                  1          0 Male  
#>  8     8   100      123.  Q2                  0          0 Female
#>  9     9     0        0   Placebo             0          0 Male  
#> 10    10   200      165.  Q3                  1          0 Female
#> # ℹ 290 more rows
…
mod <- lr_model(response_1 ~ exposure_1 + sex, lr_data)
sim <- lr_vpc_sim(mod)
sim
#> # A tibble: 30,000 × 5
#>    response_1 exposure_1 sex    row_id sim_id
#>         <dbl>      <dbl> <fct>   <int>  <int>
#>  1      0.889      148.  Male        1      1
#>  2      0.777       79.7 Male        2      1
#>  3      0.946      212.  Male        3      1
#>  4      0.953      236.  Female      4      1
#>  5      0.568        0   Male        5      1
#>  6      0.732       71.0 Female      6      1
#>  7      0.916      173.  Male        7      1
#>  8      0.838      123.  Female      8      1
#>  9      0.568        0   Male        9      1
#> 10      0.896      165.  Female     10      1
#> # ℹ 29,990 more rows
…
