…
  RNG state

## Value

A data frame or tibble

## Examples

``` r
mod <- lr_model(response_1 ~ exposure_1 + sex, lr_data)
sim <- lr_vpc_sim(mod)
#> Using seed = 5612
sim
#> # A tibble: 30,000 × 5
#>    response_1 exposure_1 sex    row_id sim_id
#>         <dbl>      <dbl> <fct>   <int>  <int>
#>  1      0.910      148.  Male        1      1
#>  2      0.811       79.7 Male        2      1
#>  3      0.958      212.  Male        3      1
#>  4      0.955      236.  Female      4      1
#>  5      0.611        0   Male        5      1
#>  6      0.729       71.0 Female      6      1
#>  7      0.933      173.  Male        7      1
#>  8      0.839      123.  Female      8      1
#>  9      0.611        0   Male        9      1
#> 10      0.898      165.  Female     10      1
#> # ℹ 29,990 more rows
```
